module gitlab.com/nikkofox/vk-wall-cleaner

go 1.18

require (
	github.com/gdamore/tcell/v2 v2.4.1-0.20210905002822-f057f0a857a1
	github.com/google/uuid v1.3.0
	github.com/rivo/tview v0.0.0-20211202162923-2a6de950f73b
)

require (
	github.com/gdamore/encoding v1.0.0 // indirect
	github.com/lucasb-eyer/go-colorful v1.2.0 // indirect
	github.com/mattn/go-runewidth v0.0.13 // indirect
	github.com/rivo/uniseg v0.2.0 // indirect
	golang.org/x/sys v0.0.0-20210309074719-68d13333faf2 // indirect
	golang.org/x/term v0.0.0-20210220032956-6a3ed077a48d // indirect
	golang.org/x/text v0.3.6 // indirect
)
